…
Time Series
===========

A great article on [time series cross validation](https://robjhyndman.com/hyndsight/tscv/) discusses the procedure for using cummulative resampling. Another option is rolling origin resampling which keeps a fixed window and progressively increases the origin. Either way are good approaches to cross validation for time series.

Data
----

``` r
beer_sales <- tq_get("S4248SM144NCEN", get = "economic.data", from = "1990-01-01", to = as.character(today()))

beer_sales
```

    ## # A tibble: 310 x 2
    ##          date price
    ##        <date> <int>
    ##  1 1992-01-01  3459
    ##  2 1992-02-01  3458
    ##  3 1992-03-01  4002
    ##  4 1992-04-01  4564
    ##  5 1992-05-01  4221
    ##  6 1992-06-01  4529
    ##  7 1992-07-01  4466
    ##  8 1992-08-01  4137
    ##  9 1992-09-01  4126
    ## 10 1992-10-01  4259
    ## # ... with 300 more rows
…
