…
Bootstrapped Resampling With Rsample
------------------------------------

Creating bootstraps

``` r
bt_samples <- bootstraps(ames, times = 25)
bt_samples
```

    ## # Bootstrap sampling 
    ## # A tibble: 25 x 2
    ##          splits          id
    ##          <list>       <chr>
    ##  1 <S3: rsplit> Bootstrap01
    ##  2 <S3: rsplit> Bootstrap02
    ##  3 <S3: rsplit> Bootstrap03
    ##  4 <S3: rsplit> Bootstrap04
    ##  5 <S3: rsplit> Bootstrap05
    ##  6 <S3: rsplit> Bootstrap06
    ##  7 <S3: rsplit> Bootstrap07
    ##  8 <S3: rsplit> Bootstrap08
    ##  9 <S3: rsplit> Bootstrap09
    ## 10 <S3: rsplit> Bootstrap10
    ## # ... with 15 more rows
Inspect one of the splits.

``` r
bt_samples$splits[[1]]
```

    ## <2911/1054/2911>

Two data sets in one. Retrieve the training data with `analysis()` (aka in-sample).

``` r
analysis(bt_samples$splits[[1]])
```

    ## # A tibble: 2,911 x 81
    ##                             MS_SubClass                    MS_Zoning
    ##                                  <fctr>                       <fctr>
    ##  1         One_Story_PUD_1946_and_Newer      Residential_Low_Density
    ##  2 One_and_Half_Story_Finished_All_Ages   Residential_Medium_Density
    ##  3 One_and_Half_Story_Finished_All_Ages      Residential_Low_Density
    ##  4             Two_Story_1946_and_Newer      Residential_Low_Density
    ##  5           Duplex_All_Styles_and_Ages      Residential_Low_Density
    ##  6 One_and_Half_Story_Finished_All_Ages      Residential_Low_Density
    ##  7           Duplex_All_Styles_and_Ages      Residential_Low_Density
    ##  8             One_Story_1945_and_Older                        C_all
    ##  9             One_Story_1945_and_Older   Residential_Medium_Density
    ## 10  One_Story_1946_and_Newer_All_Styles Floating_Village_Residential
    ## # ... with 2,901 more rows, and 79 more variables: Lot_Frontage <dbl>,
    ## #   Lot_Area <int>, Street <fctr>, Alley <fctr>, Lot_Shape <fctr>,
    ## #   Land_Contour <fctr>, Utilities <fctr>, Lot_Config <fctr>,
    ## #   Land_Slope <fctr>, Neighborhood <fctr>, Condition_1 <fctr>,
    ## #   Condition_2 <fctr>, Bldg_Type <fctr>, House_Style <fctr>,
    ## #   Overall_Qual <fctr>, Overall_Cond <fctr>, Year_Built <int>,
    ## #   Year_Remod_Add <int>, Roof_Style <fctr>, Roof_Matl <fctr>,
    ## #   Exterior_1st <fctr>, Exterior_2nd <fctr>, Mas_Vnr_Type <fctr>,
    ## #   Mas_Vnr_Area <dbl>, Exter_Qual <fctr>, Exter_Cond <fctr>,
…
Retrieve the testing set with `assessment()` (aka out-of-bag sample).

``` r
assessment(bt_samples$splits[[1]])
```

    ## # A tibble: 1,054 x 81
    ##                            MS_SubClass                    MS_Zoning
    ##                                 <fctr>                       <fctr>
    ##  1 One_Story_1946_and_Newer_All_Styles      Residential_Low_Density
    ##  2            Two_Story_1946_and_Newer      Residential_Low_Density
    ##  3            Two_Story_1946_and_Newer      Residential_Low_Density
    ##  4 One_Story_1946_and_Newer_All_Styles      Residential_Low_Density
    ##  5 One_Story_1946_and_Newer_All_Styles      Residential_Low_Density
    ##  6            Two_Story_1946_and_Newer Floating_Village_Residential
    ##  7 One_Story_1946_and_Newer_All_Styles      Residential_Low_Density
    ##  8 One_Story_1946_and_Newer_All_Styles      Residential_Low_Density
    ##  9 One_Story_1946_and_Newer_All_Styles      Residential_Low_Density
    ## 10            Two_Story_1946_and_Newer      Residential_Low_Density
    ## # ... with 1,044 more rows, and 79 more variables: Lot_Frontage <dbl>,
    ## #   Lot_Area <int>, Street <fctr>, Alley <fctr>, Lot_Shape <fctr>,
    ## #   Land_Contour <fctr>, Utilities <fctr>, Lot_Config <fctr>,
    ## #   Land_Slope <fctr>, Neighborhood <fctr>, Condition_1 <fctr>,
    ## #   Condition_2 <fctr>, Bldg_Type <fctr>, House_Style <fctr>,
    ## #   Overall_Qual <fctr>, Overall_Cond <fctr>, Year_Built <int>,
    ## #   Year_Remod_Add <int>, Roof_Style <fctr>, Roof_Matl <fctr>,
    ## #   Exterior_1st <fctr>, Exterior_2nd <fctr>, Mas_Vnr_Type <fctr>,
    ## #   Mas_Vnr_Area <dbl>, Exter_Qual <fctr>, Exter_Cond <fctr>,
…
Create individual recipes for each bootstrap resample. Use a special function `prepper()` instead of `prep()`, which helps looping through resamples (split objects).

``` r
bt_samples <- bt_samples %>%
    mutate(recipes = map(splits, ~ prepper(split_obj = .x, recipe = rec, retain = TRUE)))

bt_samples
```

    ## # Bootstrap sampling 
    ## # A tibble: 25 x 3
    ##          splits          id      recipes
    ##  *       <list>       <chr>       <list>
    ##  1 <S3: rsplit> Bootstrap01 <S3: recipe>
    ##  2 <S3: rsplit> Bootstrap02 <S3: recipe>
    ##  3 <S3: rsplit> Bootstrap03 <S3: recipe>
    ##  4 <S3: rsplit> Bootstrap04 <S3: recipe>
    ##  5 <S3: rsplit> Bootstrap05 <S3: recipe>
    ##  6 <S3: rsplit> Bootstrap06 <S3: recipe>
    ##  7 <S3: rsplit> Bootstrap07 <S3: recipe>
    ##  8 <S3: rsplit> Bootstrap08 <S3: recipe>
    ##  9 <S3: rsplit> Bootstrap09 <S3: recipe>
    ## 10 <S3: rsplit> Bootstrap10 <S3: recipe>
    ## # ... with 15 more rows

Map our modeling function. We'll just use a simple `lm()` function.

``` r
bt_samples <- bt_samples %>%
    mutate(fit = map(recipes, ~ lm(Sale_Price ~ ., data = juice(.x, everything()))))

bt_samples
```

    ## # Bootstrap sampling 
    ## # A tibble: 25 x 4
    ##          splits          id      recipes      fit
    ##  *       <list>       <chr>       <list>   <list>
    ##  1 <S3: rsplit> Bootstrap01 <S3: recipe> <S3: lm>
    ##  2 <S3: rsplit> Bootstrap02 <S3: recipe> <S3: lm>
    ##  3 <S3: rsplit> Bootstrap03 <S3: recipe> <S3: lm>
    ##  4 <S3: rsplit> Bootstrap04 <S3: recipe> <S3: lm>
    ##  5 <S3: rsplit> Bootstrap05 <S3: recipe> <S3: lm>
    ##  6 <S3: rsplit> Bootstrap06 <S3: recipe> <S3: lm>
    ##  7 <S3: rsplit> Bootstrap07 <S3: recipe> <S3: lm>
    ##  8 <S3: rsplit> Bootstrap08 <S3: recipe> <S3: lm>
    ##  9 <S3: rsplit> Bootstrap09 <S3: recipe> <S3: lm>
    ## 10 <S3: rsplit> Bootstrap10 <S3: recipe> <S3: lm>
    ## # ... with 15 more rows
…
    return(ret)
}
```

Test the `pred_lm()` function out.

``` r
pred_lm(
    split_obj = bt_samples$splits[[1]], 
    rec_obj   = bt_samples$recipes[[1]],
    model_obj = bt_samples$fit[[1]]
    )
```

    ## # A tibble: 1,054 x 2
    ##      actual  predict
    ##       <dbl>    <dbl>
    ##  1 5.332438 5.308145
    ##  2 5.245266 5.273952
    ##  3 5.256237 5.251121
    ##  4 5.234264 5.226863
    ##  5 5.322219 5.276163
    ##  6 5.334454 5.386429
    ##  7 5.100371 5.126792
    ##  8 5.596808 5.457845
    ##  9 5.439333 5.474513
    ## 10 5.505150 5.546621
    ## # ... with 1,044 more rows

Map the prediction function using `pmap()`.

``` r
bt_samples <- bt_samples %>%
    mutate(pred = pmap(list(splits, recipes, fit), pred_lm))

bt_samples
```

    ## # Bootstrap sampling 
    ## # A tibble: 25 x 5
    ##          splits          id      recipes      fit                 pred
    ##  *       <list>       <chr>       <list>   <list>               <list>
    ##  1 <S3: rsplit> Bootstrap01 <S3: recipe> <S3: lm> <tibble [1,054 x 2]>
    ##  2 <S3: rsplit> Bootstrap02 <S3: recipe> <S3: lm> <tibble [1,053 x 2]>
    ##  3 <S3: rsplit> Bootstrap03 <S3: recipe> <S3: lm> <tibble [1,076 x 2]>
    ##  4 <S3: rsplit> Bootstrap04 <S3: recipe> <S3: lm> <tibble [1,072 x 2]>
    ##  5 <S3: rsplit> Bootstrap05 <S3: recipe> <S3: lm> <tibble [1,071 x 2]>
    ##  6 <S3: rsplit> Bootstrap06 <S3: recipe> <S3: lm> <tibble [1,086 x 2]>
    ##  7 <S3: rsplit> Bootstrap07 <S3: recipe> <S3: lm> <tibble [1,107 x 2]>
    ##  8 <S3: rsplit> Bootstrap08 <S3: recipe> <S3: lm> <tibble [1,077 x 2]>
    ##  9 <S3: rsplit> Bootstrap09 <S3: recipe> <S3: lm> <tibble [1,056 x 2]>
    ## 10 <S3: rsplit> Bootstrap10 <S3: recipe> <S3: lm> <tibble [1,058 x 2]>
    ## # ... with 15 more rows

Calculate RMSE.

``` r
bt_samples <- bt_samples %>%
    mutate(rmse = map_dbl(pred, ~ sqrt(mean((.x$actual - .x$predict)^2))))

bt_samples
```

    ## # Bootstrap sampling 
    ## # A tibble: 25 x 6
    ##          splits          id      recipes      fit                 pred
    ##  *       <list>       <chr>       <list>   <list>               <list>
    ##  1 <S3: rsplit> Bootstrap01 <S3: recipe> <S3: lm> <tibble [1,054 x 2]>
    ##  2 <S3: rsplit> Bootstrap02 <S3: recipe> <S3: lm> <tibble [1,053 x 2]>
    ##  3 <S3: rsplit> Bootstrap03 <S3: recipe> <S3: lm> <tibble [1,076 x 2]>
    ##  4 <S3: rsplit> Bootstrap04 <S3: recipe> <S3: lm> <tibble [1,072 x 2]>
    ##  5 <S3: rsplit> Bootstrap05 <S3: recipe> <S3: lm> <tibble [1,071 x 2]>
    ##  6 <S3: rsplit> Bootstrap06 <S3: recipe> <S3: lm> <tibble [1,086 x 2]>
    ##  7 <S3: rsplit> Bootstrap07 <S3: recipe> <S3: lm> <tibble [1,107 x 2]>
    ##  8 <S3: rsplit> Bootstrap08 <S3: recipe> <S3: lm> <tibble [1,077 x 2]>
    ##  9 <S3: rsplit> Bootstrap09 <S3: recipe> <S3: lm> <tibble [1,056 x 2]>
    ## 10 <S3: rsplit> Bootstrap10 <S3: recipe> <S3: lm> <tibble [1,058 x 2]>
    ## # ... with 15 more rows, and 1 more variables: rmse <dbl>
…
