…
The [R Interface to Keras](https://tensorflow.rstudio.com/keras/) is used to develop high-level neural networks. The `rsample` package can be used to tune the hyperparameters using Grid Search.

Data
----

``` r
ames <- make_ames() %>%
  select(Sale_Price, Longitude, Latitude)

ames
```

    ## # A tibble: 2,911 x 3
    ##    Sale_Price Longitude Latitude
    ##         <int>     <dbl>    <dbl>
    ##  1     215000 -93.61975 42.05403
    ##  2     105000 -93.61976 42.05301
    ##  3     172000 -93.61939 42.05266
    ##  4     244000 -93.61732 42.05125
    ##  5     189900 -93.63893 42.06090
    ##  6     195500 -93.63893 42.06078
    ##  7     213500 -93.63379 42.06298
    ##  8     191500 -93.63383 42.06073
    ##  9     236500 -93.63285 42.06112
    ## 10     189000 -93.63907 42.05919
    ## # ... with 2,901 more rows
…
data_split
```

    ## <2186/725/2911>

We can retreive the testing set using `analysis()`.

``` r
analysis(data_split)
```

    ## # A tibble: 2,186 x 3
    ##    Sale_Price Longitude Latitude
    ##         <int>     <dbl>    <dbl>
    ##  1     215000 -93.61975 42.05403
    ##  2     189900 -93.63893 42.06090
    ##  3     213500 -93.63379 42.06298
    ##  4     191500 -93.63383 42.06073
    ##  5     236500 -93.63285 42.06112
    ##  6     189000 -93.63907 42.05919
    ##  7     175900 -93.63695 42.05848
    ##  8     171500 -93.63463 42.05727
    ##  9     212000 -93.63291 42.05917
    ## 10     164000 -93.62360 42.06035
    ## # ... with 2,176 more rows
…
This allows users to quickly update parameters with the splits integrated. Here's a quick example.

``` r
grid_search_cv(cv_splits, 
               epoch = c(50, 100, 150), 
               units = c(5, 10, 15, 20))
```

    ## # A tibble: 60 x 4
    ##    epoch units    id       splits
    ##    <dbl> <dbl> <chr>       <list>
    ##  1    50     5 Fold1 <S3: rsplit>
    ##  2   100     5 Fold1 <S3: rsplit>
    ##  3   150     5 Fold1 <S3: rsplit>
    ##  4    50    10 Fold1 <S3: rsplit>
    ##  5   100    10 Fold1 <S3: rsplit>
    ##  6   150    10 Fold1 <S3: rsplit>
    ##  7    50    15 Fold1 <S3: rsplit>
    ##  8   100    15 Fold1 <S3: rsplit>
    ##  9   150    15 Fold1 <S3: rsplit>
    ## 10    50    20 Fold1 <S3: rsplit>
    ## # ... with 50 more rows
…
